{
    "@class": "com.kony.gen.viz.model.component.KVizUserWidget",
    "DNDConfig": null,
    "_children_": [],
    "_height_": {
        "type": "ref",
        "value": "preferred"
    },
    "_left_": {
        "type": "string",
        "value": "0dp"
    },
    "_margin_": [
        0,
        0,
        0,
        0
    ],
    "_orientation_": 1,
    "_padding_": [
        0,
        0,
        0,
        0
    ],
    "_percent_": true,
    "_right_": {
        "type": "number",
        "value": "0"
    },
    "_skin_": "s36cbd6ae2764117b8083d250b22ac3d",
    "_top_": {
        "type": "string",
        "value": "0dp"
    },
    "areflexpropsreferenced": false,
    "autogrowmode": 1,
    "canUpdateUI": true,
    "clipbounds": true,
    "containerweight": 0,
    "dataDiffs": {
        "back": {
            "__events__": {},
            "__info__": {
                "isRoot": true,
                "kuid": "a1ede2a368c0445384c35a9e6b56bbd0",
                "srcKUID": "d2625840c25b431bafafe9badccae55e",
                "wType": "FlexContainer"
            }
        },
        "backBarLine": {
            "__events__": {},
            "__info__": {
                "kuid": "b6e85ff6666b49da8281d1208234be62",
                "srcKUID": "d9b58b2b901e4cf6b1a3ed1f823be512",
                "wType": "FlexContainer"
            }
        },
        "backIconSpan": {
            "__events__": {},
            "__info__": {
                "kuid": "a365e1c1a9e948b18847f1b368458406",
                "srcKUID": "g855b5a0a486419fa106f9389c81eea3",
                "wType": "FlexContainer"
            }
        },
        "btnBack": {
            "__events__": {},
            "__info__": {
                "kuid": "d7dcf6c905534890ba9688eed47ce695",
                "srcKUID": "a810695db12e40ef8e6e2fdd1f5a354b",
                "wType": "Button"
            }
        },
        "frmTitle": {
            "__events__": {},
            "__info__": {
                "kuid": "h5e44a0f00514499ae110dfd9e8de7d7",
                "srcKUID": "cb64dff9384042619fefcfd5bc6abce8",
                "wType": "FlexContainer"
            }
        },
        "frmTitleID": {
            "__events__": {},
            "__info__": {
                "kuid": "d7504ee0f0be4f45b32827db7f0747cc",
                "srcKUID": "e197f4b300594e72aab96e90069161e0",
                "wType": "Label"
            },
            "text": "CNIC to mWallet"
        }
    },
    "enablescrolling": true,
    "id": "back",
    "info": null,
    "iscustomlayout": false,
    "isdatareferenced": false,
    "isvisible": true,
    "kuid": "a1ede2a368c0445384c35a9e6b56bbd0",
    "layouttype": 5,
    "masterType": 0,
    "name": "kony.ui.UserWidgetInstance",
    "parent": "cTowTransferId",
    "pf": "frmCnicToWallet",
    "retaincontentalignment": false,
    "retainflexpositionproperties": false,
    "retainflowhorizontalalignment": false,
    "snapgridsize": "10",
    "snaptogrid": true,
    "sourceUserWidget": "d2625840c25b431bafafe9badccae55e",
    "wType": "UserWidgetInstance",
    "zindex": 1
}