{
  "subType" : "customapp",
  "description" : "This app is created from Studio App OmniAgentApp.\r\n",
  "version" : "1.0",
  "identitySvcConf" : "{\"session_idle_timeout_mins\":20,\"session_max_duration_mins\":360,\"show_security_attributes\":false,\"is_integrity_enabled\":false,\"auto_extend\":true}"
}