{
    "DNDConfig": null,
    "_height_": {
        "type": "ref",
        "value": "preferred"
    },
    "_left_": {
        "type": "string",
        "value": "20dp"
    },
    "_margin_": [
        0,
        0,
        0,
        0
    ],
    "_orientation_": 6,
    "_padding_": [
        0,
        0,
        0,
        0
    ],
    "_percent_": true,
    "_right_": {
        "type": "number",
        "value": "20"
    },
    "_skin_": "s1c6d548ef784252962c7b615c92d659",
    "_top_": {
        "type": "string",
        "value": "20dp"
    },
    "allboxes": [],
    "autogrowmode": 1,
    "canUpdateUI": true,
    "children": [
        "back",
        "Label0c43f110320ed4c",
        "inputContorl",
        "inputContorl1",
        "singleBtnSection"
    ],
    "clipbounds": true,
    "containerweight": 100,
    "enablescrolling": true,
    "id": "cashoutTransferId",
    "info": null,
    "iscustomlayout": false,
    "isvisible": true,
    "kuid": "d2a57427658643cf98cd3ac2ee52f534",
    "layouttype": 4,
    "name": "kony.ui.FlexContainer",
    "parent": "frmId",
    "pf": "frmCashOut",
    "retaincontentalignment": false,
    "retainflexpositionproperties": false,
    "retainflowhorizontalalignment": false,
    "snapgridsize": 10,
    "snaptogrid": true,
    "wType": "FlexContainer",
    "widgetalignment": 1,
    "zindex": 1
}