{
    "@class": "com.kony.gen.viz.model.component.KVizUserWidget",
    "DNDConfig": null,
    "_children_": [],
    "_height_": {
        "type": "ref",
        "value": "preferred"
    },
    "_left_": {
        "type": "string",
        "value": "0dp"
    },
    "_margin_": [
        0,
        0,
        0,
        0
    ],
    "_orientation_": 1,
    "_padding_": [
        0,
        0,
        0,
        0
    ],
    "_percent_": true,
    "_right_": {
        "type": "number",
        "value": "0"
    },
    "_skin_": "s36cbd6ae2764117b8083d250b22ac3d",
    "_top_": {
        "type": "string",
        "value": "0dp"
    },
    "areflexpropsreferenced": false,
    "autogrowmode": 1,
    "canUpdateUI": true,
    "clipbounds": true,
    "containerweight": 0,
    "dataDiffs": {
        "back": {
            "__events__": {},
            "__info__": {
                "isRoot": true,
                "kuid": "ec79544ce84f4d9280a82d5e8e79f500",
                "srcKUID": "d2625840c25b431bafafe9badccae55e",
                "wType": "FlexContainer"
            }
        },
        "backBarLine": {
            "__events__": {},
            "__info__": {
                "kuid": "fcf0309fc3c740d58c9e1d6f1006b5d4",
                "srcKUID": "d9b58b2b901e4cf6b1a3ed1f823be512",
                "wType": "FlexContainer"
            }
        },
        "backIconSpan": {
            "__events__": {},
            "__info__": {
                "kuid": "a2c20fe71ddb4273bdc53df1ba26878a",
                "srcKUID": "g855b5a0a486419fa106f9389c81eea3",
                "wType": "FlexContainer"
            }
        },
        "btnBack": {
            "__events__": {},
            "__info__": {
                "kuid": "a89fe219e57a4050bc72a062020f3bba",
                "srcKUID": "a810695db12e40ef8e6e2fdd1f5a354b",
                "wType": "Button"
            }
        },
        "frmTitle": {
            "__events__": {},
            "__info__": {
                "kuid": "i1b9eb1745ad4a1dad343700a9e5933b",
                "srcKUID": "cb64dff9384042619fefcfd5bc6abce8",
                "wType": "FlexContainer"
            }
        },
        "frmTitleID": {
            "__events__": {},
            "__info__": {
                "kuid": "bd1070219d2d42f6ba6183de39aee570",
                "srcKUID": "e197f4b300594e72aab96e90069161e0",
                "wType": "Label"
            },
            "text": "Wallet To CNIC"
        }
    },
    "enablescrolling": true,
    "id": "back",
    "info": null,
    "iscustomlayout": false,
    "isdatareferenced": false,
    "isvisible": true,
    "kuid": "ec79544ce84f4d9280a82d5e8e79f500",
    "layouttype": 5,
    "masterType": 0,
    "name": "kony.ui.UserWidgetInstance",
    "parent": "wTocTransferId",
    "pf": "frmWalletToCnic",
    "retaincontentalignment": false,
    "retainflexpositionproperties": false,
    "retainflowhorizontalalignment": false,
    "snapgridsize": "10",
    "snaptogrid": true,
    "sourceUserWidget": "d2625840c25b431bafafe9badccae55e",
    "wType": "UserWidgetInstance",
    "zindex": 1
}