{
    "@class": "com.kony.gen.viz.model.component.KVizUserWidget",
    "DNDConfig": null,
    "_children_": [],
    "_height_": {
        "type": "ref",
        "value": "preferred"
    },
    "_left_": {
        "type": "string",
        "value": "0dp"
    },
    "_margin_": [
        0,
        0,
        0,
        0
    ],
    "_orientation_": 1,
    "_padding_": [
        0,
        0,
        0,
        0
    ],
    "_percent_": true,
    "_skin_": "s36cbd6ae2764117b8083d250b22ac3d",
    "_top_": {
        "type": "string",
        "value": "0dp"
    },
    "_width_": {
        "type": "string",
        "value": "100%"
    },
    "areflexpropsreferenced": false,
    "autogrowmode": 1,
    "canUpdateUI": true,
    "clipbounds": true,
    "containerweight": 0,
    "dataDiffs": {
        "commonLabelID": {
            "__events__": {},
            "__info__": {
                "kuid": "b8a0ae1ba0bc496bb475e8c759406322",
                "srcKUID": "f8588a3d34f245c0a4f94fc3d7a84596",
                "wType": "Label"
            },
            "text": "Amount *"
        },
        "inputContorl": {
            "__events__": {},
            "__info__": {
                "isRoot": true,
                "kuid": "i84ec3242d064468be55369ab7f68676",
                "srcKUID": "g0ee906268ec4028a58972020308f78b",
                "wType": "FlexContainer"
            },
            "top": {
                "Default": {
                    "type": "string",
                    "value": "0dp"
                }
            }
        },
        "textBoxID": {
            "__events__": {},
            "__info__": {
                "kuid": "e87bf4cd4cc34c5aab01177196da8c83",
                "srcKUID": "c422369368ff4fa78e7ac29ce940a005",
                "wType": "TextField"
            },
            "placeholder": "Amount"
        }
    },
    "enablescrolling": true,
    "id": "inputContorl5",
    "info": null,
    "iscustomlayout": false,
    "isdatareferenced": false,
    "isvisible": true,
    "kuid": "i84ec3242d064468be55369ab7f68676",
    "layouttype": 2,
    "masterType": 0,
    "name": "kony.ui.UserWidgetInstance",
    "parent": "cTocTransferId",
    "pf": "frmCnicToCnic",
    "retaincontentalignment": false,
    "retainflexpositionproperties": false,
    "retainflowhorizontalalignment": false,
    "snapgridsize": "10",
    "snaptogrid": true,
    "sourceUserWidget": "g0ee906268ec4028a58972020308f78b",
    "wType": "UserWidgetInstance",
    "zindex": 1
}