{
  "android": {
    "font_name": "default",
    "font_size": 97,
    "isForked": false
  },
  "androidwearos": {
    "font_name": "default",
    "font_size": 125,
    "isForked": false
  },
  "background_color": "00000000",
  "bg_type": "one",
  "border_color": "424242ff",
  "border_style": "plain",
  "border_type": 0,
  "border_width": 0,
  "desktopweb": {
    "font_name": "Helvetica",
    "font_size": 219,
    "isForked": false
  },
  "fontSizeInPx": true,
  "font_color": "333333ff",
  "font_name": "iphoneSystem",
  "font_size": 97,
  "font_style": "normal",
  "font_weight": "400",
  "ipad": {
    "font_name": "System",
    "font_size": 125,
    "isForked": false
  },
  "iphone": {
    "font_name": "System",
    "font_size": 121,
    "isForked": false
  },
  "isDefaultSkin": false,
  "kiosk": {
    "font_name": "None",
    "font_size": 219,
    "isForked": false
  },
  "kuid": "s91c0481d1c24f3881b748f8d7746d9c",
  "spaan": {
    "font_name": "Helvetica",
    "font_size": 90,
    "isForked": false
  },
  "spaandroidtablet": {
    "font_name": "Helvetica",
    "font_size": 75,
    "isForked": false
  },
  "spaip": {
    "font_name": "Helvetica",
    "font_size": 87,
    "isForked": false
  },
  "spaipad": {
    "font_name": "Helvetica",
    "font_size": 79,
    "isForked": false
  },
  "spawindowstablet": {
    "font_name": "Helvetica",
    "font_size": 79,
    "isForked": false
  },
  "spawinphone8": {
    "font_name": "Helvetica",
    "font_size": 112,
    "isForked": false
  },
  "tabrcandroid": {
    "font_name": "default",
    "font_size": 207,
    "isForked": false
  },
  "wType": "Label",
  "watchos": {
    "font_name": "System",
    "font_size": 125,
    "isForked": false
  },
  "windows8": {
    "font_name": "None",
    "font_size": 85,
    "isForked": false
  },
  "winphone8": {
    "font_name": "None",
    "font_size": 117,
    "isForked": false
  }
}