{
    "background_color": "ffffff00", 
    "bg_type": "one", 
    "border_color": "000000ff", 
    "border_style": "plain", 
    "border_type": 0, 
    "border_width": 0, 
    "isDefaultSkin": false, 
    "kuid": "safdf0d479554d2e8917c8507f0db3e0", 
    "wType": "FlexContainer"
}