{
    "@class": "com.kony.gen.viz.model.component.KVizUserWidget",
    "DNDConfig": null,
    "_bottom_": {
        "type": "number",
        "value": "0"
    },
    "_children_": [],
    "_height_": {
        "type": "string",
        "value": "56dp"
    },
    "_left_": {
        "type": "string",
        "value": "0dp"
    },
    "_margin_": [
        0,
        0,
        0,
        0
    ],
    "_orientation_": 1,
    "_padding_": [
        0,
        0,
        0,
        0
    ],
    "_percent_": true,
    "_right_": {
        "type": "number",
        "value": "0"
    },
    "_skin_": "s36cbd6ae2764117b8083d250b22ac3d",
    "areflexpropsreferenced": false,
    "autogrowmode": 0,
    "canUpdateUI": true,
    "clipbounds": true,
    "containerweight": 0,
    "dataDiffs": {
        "singleBtnSection": {
            "__events__": {},
            "__info__": {
                "isRoot": true,
                "kuid": "b2f1abd239a843ff94b93e35f4f65b76",
                "srcKUID": "b379575ae1df4d18aa927caae14791a6",
                "wType": "FlexContainer"
            }
        },
        "submitBtnID": {
            "__events__": {},
            "__info__": {
                "kuid": "cd121f8979174796b5aee25d99a00aad",
                "srcKUID": "jc4149d3ea234a909cf3fd6af88b9ca7",
                "wType": "Button"
            },
            "text": "Submit"
        }
    },
    "enablescrolling": true,
    "id": "singleBtnSection",
    "info": null,
    "iscustomlayout": false,
    "isdatareferenced": false,
    "isvisible": true,
    "kuid": "b2f1abd239a843ff94b93e35f4f65b76",
    "layouttype": 2,
    "masterType": 0,
    "name": "kony.ui.UserWidgetInstance",
    "parent": "newInventoryId",
    "pf": "frmRequestNewInventory",
    "retaincontentalignment": false,
    "retainflexpositionproperties": false,
    "retainflowhorizontalalignment": false,
    "snapgridsize": 10,
    "snaptogrid": true,
    "sourceUserWidget": "b379575ae1df4d18aa927caae14791a6",
    "wType": "UserWidgetInstance",
    "zindex": 1
}