{
    "@class": "com.kony.gen.viz.model.component.KVizTextBox2",
    "DNDConfig": null,
    "_height_": {
        "type": "string",
        "value": "40dp"
    },
    "_left_": {
        "type": "string",
        "value": "0dp"
    },
    "_margin_": [
        0,
        0,
        0,
        0
    ],
    "_padding_": [
        3,
        0,
        0,
        0
    ],
    "_placeholder_": "Enter your password",
    "_right_": {
        "type": "number",
        "value": "0"
    },
    "_skin_": "sa078da0fb884d889edb03714956d8ed",
    "_text_": "",
    "_top_": {
        "type": "string",
        "value": "105dp"
    },
    "autocapitalize": "none",
    "autocomplete": false,
    "autocorrect": false,
    "autofilter": false,
    "canUpdateUI": true,
    "containerheight": "",
    "containerheightmode": 1,
    "containerweight": 100,
    "contentalignment": 4,
    "focusskin": "s8d5a7d729cc4c6fa55a942f43eee66d",
    "id": "passwordInput",
    "info": null,
    "iscustomlayout": false,
    "isvisible": true,
    "keyboardtype": "A",
    "kuid": "c7d25264d07e4330adfec22283773b8c",
    "mode": "A",
    "name": "kony.ui.TextBox2",
    "parent": "form1",
    "pf": "userwidgetmodel",
    "placeholderskin": "sf712cf5de324fc3bf927da72875040d",
    "retaincontentalignment": false,
    "retainflexpositionproperties": false,
    "securetextentry": false,
    "textinputmode": "A",
    "tooltip": "",
    "viewtype": "default",
    "wType": "TextField",
    "zindex": 1
}