{
    "@class": "com.kony.gen.viz.model.component.KVizUserWidget",
    "DNDConfig": null,
    "_children_": [],
    "_height_": {
        "type": "ref",
        "value": "preferred"
    },
    "_left_": {
        "type": "string",
        "value": "0dp"
    },
    "_margin_": [
        0,
        0,
        0,
        0
    ],
    "_orientation_": 1,
    "_padding_": [
        0,
        0,
        0,
        0
    ],
    "_percent_": true,
    "_skin_": "s36cbd6ae2764117b8083d250b22ac3d",
    "_top_": {
        "type": "string",
        "value": "0dp"
    },
    "_width_": {
        "type": "string",
        "value": "100%"
    },
    "areflexpropsreferenced": false,
    "autogrowmode": 1,
    "canUpdateUI": true,
    "clipbounds": true,
    "containerweight": 0,
    "dataDiffs": {
        "commonLabelID": {
            "__events__": {},
            "__info__": {
                "kuid": "i29483fc86be4ba787fa172cf869d6b7",
                "srcKUID": "f8588a3d34f245c0a4f94fc3d7a84596",
                "wType": "Label"
            },
            "text": "Mobile No *"
        },
        "inputContorl": {
            "__events__": {},
            "__info__": {
                "isRoot": true,
                "kuid": "f8aa877dab8048fb805a1c9c1b819169",
                "srcKUID": "g0ee906268ec4028a58972020308f78b",
                "wType": "FlexContainer"
            }
        },
        "textBoxID": {
            "__events__": {},
            "__info__": {
                "kuid": "h407c4ac9ce84bca82b150535d1ec34c",
                "srcKUID": "c422369368ff4fa78e7ac29ce940a005",
                "wType": "TextField"
            },
            "placeholder": "Mobile No",
            "text": ""
        }
    },
    "enablescrolling": true,
    "id": "inputContorl1",
    "info": null,
    "iscustomlayout": false,
    "isdatareferenced": false,
    "isvisible": true,
    "kuid": "f8aa877dab8048fb805a1c9c1b819169",
    "layouttype": 2,
    "masterType": 0,
    "name": "kony.ui.UserWidgetInstance",
    "parent": "mobileTopupTransefrId",
    "pf": "frmMobileTopUp",
    "retaincontentalignment": false,
    "retainflexpositionproperties": false,
    "retainflowhorizontalalignment": false,
    "snapgridsize": "10",
    "snaptogrid": true,
    "sourceUserWidget": "g0ee906268ec4028a58972020308f78b",
    "wType": "UserWidgetInstance",
    "zindex": 1
}