{
    "@class": "com.kony.gen.viz.model.component.KVizUserWidget",
    "DNDConfig": null,
    "_children_": [],
    "_height_": {
        "type": "ref",
        "value": "preferred"
    },
    "_left_": {
        "type": "string",
        "value": "0dp"
    },
    "_margin_": [
        0,
        0,
        0,
        0
    ],
    "_orientation_": 1,
    "_padding_": [
        0,
        0,
        0,
        0
    ],
    "_percent_": true,
    "_skin_": "s36cbd6ae2764117b8083d250b22ac3d",
    "_top_": {
        "type": "string",
        "value": "0dp"
    },
    "_width_": {
        "type": "string",
        "value": "100%"
    },
    "areflexpropsreferenced": false,
    "autogrowmode": 1,
    "canUpdateUI": true,
    "clipbounds": true,
    "containerweight": 0,
    "dataDiffs": {
        "commonLabelID": {
            "__events__": {},
            "__info__": {
                "kuid": "cf51776bd27f4e3aab2435d06e59bc1c",
                "srcKUID": "f8588a3d34f245c0a4f94fc3d7a84596",
                "wType": "Label"
            },
            "text": "Select Company *"
        },
        "inputContorl": {
            "__events__": {},
            "__info__": {
                "isRoot": true,
                "kuid": "j6f21b1a20074e5da59563b017c63264",
                "srcKUID": "g0ee906268ec4028a58972020308f78b",
                "wType": "FlexContainer"
            }
        },
        "textBoxID": {
            "__events__": {},
            "__info__": {
                "kuid": "e682e7c169ba455cbdcc735091dddcd4",
                "srcKUID": "c422369368ff4fa78e7ac29ce940a005",
                "wType": "TextField"
            }
        }
    },
    "enablescrolling": true,
    "id": "inputContorl",
    "info": null,
    "iscustomlayout": false,
    "isdatareferenced": false,
    "isvisible": true,
    "kuid": "j6f21b1a20074e5da59563b017c63264",
    "layouttype": 2,
    "masterType": 0,
    "name": "kony.ui.UserWidgetInstance",
    "parent": "billPaymentTransferId",
    "pf": "frmBillPayment",
    "retaincontentalignment": false,
    "retainflexpositionproperties": false,
    "retainflowhorizontalalignment": false,
    "snapgridsize": "10",
    "snaptogrid": true,
    "sourceUserWidget": "g0ee906268ec4028a58972020308f78b",
    "wType": "UserWidgetInstance",
    "zindex": 1
}