{
    "AS_FlexContainer_b2c668f5df504406b75d12876879121b": {
        "id": "AS_FlexContainer_b2c668f5df504406b75d12876879121b",
        "type": "ACTION_SEQUENCE",
        "params": [{
            "datatype": "collection",
            "name": "eventobject"
        }],
        "contextObj": {
            "name": "userwidgetmodel",
            "type": "userwidgets",
            "KUID": "uf51e49accfc4724ba9dc0cdbcf5589d"
        },
        "language": "js",
        "actions": [{
            "id": "ADD_SNIPPET__e92fb9eb5d684596aded4a2e83d23040",
            "type": "ADD_SNIPPET",
            "codeSnippet": "this._onClickFlxHeader(eventobject);",
            "parentId": null,
            "callbackType": null
        }]
    }
}