{
    "DNDConfig": null,
    "_height_": {
        "type": "string",
        "value": "74dp"
    },
    "_left_": {
        "type": "string",
        "value": "0dp"
    },
    "_margin_": [
        0,
        0,
        0,
        0
    ],
    "_orientation_": 6,
    "_padding_": [
        0,
        0,
        0,
        0
    ],
    "_percent_": true,
    "_skin_": "s36cbd6ae2764117b8083d250b22ac3d",
    "_top_": {
        "type": "string",
        "value": "0dp"
    },
    "_width_": {
        "type": "string",
        "value": "100%"
    },
    "allboxes": [],
    "autogrowmode": 0,
    "canUpdateUI": true,
    "children": [
        "Navicon"
    ],
    "clipbounds": true,
    "containerweight": 100,
    "desktop": {
        "responsiveconfig": {
            "offset": {
                "b1": 0,
                "b2": 0,
                "b3": 0
            },
            "span": {
                "b1": 3,
                "b2": 4,
                "b3": 6
            }
        }
    },
    "enablescrolling": true,
    "id": "navSpan",
    "info": null,
    "iscustomlayout": false,
    "isvisible": true,
    "kuid": "b1a5e87cc5a4430c8cbc7b287162eb7f",
    "layouttype": 2,
    "mobile": {
        "responsiveconfig": {
            "offset": {
                "landscape": 0,
                "portrait": 0
            },
            "span": {
                "landscape": 1,
                "portrait": 2
            }
        }
    },
    "name": "kony.ui.FlexContainer",
    "parent": "headerSection",
    "pf": "userwidgetmodel",
    "retaincontentalignment": false,
    "retainflexpositionproperties": false,
    "retainflowhorizontalalignment": false,
    "snapgridsize": 10,
    "snaptogrid": true,
    "tablet": {
        "responsiveconfig": {
            "offset": {
                "landscape": 0,
                "portrait": 0
            },
            "span": {
                "landscape": 3,
                "portrait": 6
            }
        }
    },
    "wType": "FlexContainer",
    "widgetalignment": 1,
    "zindex": 1
}