{
    "@class": "com.kony.gen.viz.model.component.KVizUserWidget",
    "DNDConfig": null,
    "_children_": [],
    "_height_": {
        "type": "string",
        "value": "74dp"
    },
    "_left_": {
        "type": "string",
        "value": "0dp"
    },
    "_margin_": [
        0,
        0,
        0,
        0
    ],
    "_orientation_": 1,
    "_padding_": [
        0,
        0,
        0,
        0
    ],
    "_percent_": true,
    "_right_": {
        "type": "number",
        "value": "0"
    },
    "_skin_": "s51e9368f8f94bdca76cc7ffb53bdaa0",
    "_top_": {
        "type": "string",
        "value": "0dp"
    },
    "areflexpropsreferenced": false,
    "autogrowmode": 0,
    "canUpdateUI": true,
    "clipbounds": true,
    "containerweight": 0,
    "dataDiffs": {
        "Navicon": {
            "__events__": {},
            "__info__": {
                "kuid": "f2d5e8f3d7e0411ab06bc0ebef52f861",
                "srcKUID": "c1d262e9199a4fb49c67a76012bf0e4e",
                "wType": "Label"
            }
        },
        "SignOut": {
            "__events__": {},
            "__info__": {
                "kuid": "b830f7a92fa544ab97e3e913e06a325a",
                "srcKUID": "d030d435372a4fc496505683ab8d1b8d",
                "wType": "Label"
            }
        },
        "headerSection": {
            "__events__": {},
            "__info__": {
                "isRoot": true,
                "kuid": "hcebc4dac4c843788786a970712e7ea6",
                "srcKUID": "e376d336675c4931be9b1e8d3be94e1f",
                "wType": "FlexContainer"
            }
        },
        "lblHeader": {
            "__events__": {},
            "__info__": {
                "kuid": "daf4a5ac91ab430fa2cc8e0a911ea2bd",
                "srcKUID": "g25eeff558394b8aa9b8c8e611e4705a",
                "wType": "Label"
            }
        },
        "logoutSpan": {
            "__events__": {},
            "__info__": {
                "kuid": "c989256f60ad4dba955e7cb216ffc912",
                "srcKUID": "faa11e9a9d7140d086bbb991b72fa872",
                "wType": "FlexContainer"
            }
        },
        "navSpan": {
            "__events__": {},
            "__info__": {
                "kuid": "abbfbb3e812c418e861b6c7989ba4d68",
                "srcKUID": "b1a5e87cc5a4430c8cbc7b287162eb7f",
                "wType": "FlexContainer"
            }
        },
        "pageTitleSpan": {
            "__events__": {},
            "__info__": {
                "kuid": "fe7ce697b1a14e6f9205fb30b9457f71",
                "srcKUID": "d111f8af4ef34a5f884706d3607ca18f",
                "wType": "FlexContainer"
            }
        }
    },
    "defaultunit": 3,
    "enablescrolling": true,
    "id": "headerSection",
    "info": null,
    "iscustomlayout": false,
    "isdatareferenced": false,
    "isvisible": true,
    "kuid": "hcebc4dac4c843788786a970712e7ea6",
    "layouttype": 5,
    "masterType": 0,
    "name": "kony.ui.UserWidgetInstance",
    "parent": "frmInventoryDetails",
    "pf": "frmInventoryDetails",
    "retaincontentalignment": false,
    "retainflexpositionproperties": false,
    "retainflowhorizontalalignment": false,
    "snapgridsize": "5",
    "snaptogrid": true,
    "sourceUserWidget": "e376d336675c4931be9b1e8d3be94e1f",
    "wType": "UserWidgetInstance",
    "zindex": 1
}