{
    "@class": "com.kony.gen.viz.model.component.KVizUserWidget",
    "DNDConfig": null,
    "_children_": [],
    "_height_": {
        "type": "ref",
        "value": "preferred"
    },
    "_left_": {
        "type": "string",
        "value": "0dp"
    },
    "_margin_": [
        0,
        0,
        0,
        0
    ],
    "_orientation_": 1,
    "_padding_": [
        0,
        0,
        0,
        0
    ],
    "_percent_": true,
    "_right_": {
        "type": "number",
        "value": "0"
    },
    "_skin_": "s36cbd6ae2764117b8083d250b22ac3d",
    "_top_": {
        "type": "string",
        "value": "0dp"
    },
    "areflexpropsreferenced": false,
    "autogrowmode": 1,
    "canUpdateUI": true,
    "clipbounds": true,
    "containerweight": 0,
    "dataDiffs": {
        "back": {
            "__events__": {},
            "__info__": {
                "isRoot": true,
                "kuid": "j909ca63b2f34204977bb2cbe014a251",
                "srcKUID": "d2625840c25b431bafafe9badccae55e",
                "wType": "FlexContainer"
            }
        },
        "backBarLine": {
            "__events__": {},
            "__info__": {
                "kuid": "f4dd93833e344015973a0a8f3c8e1f79",
                "srcKUID": "d9b58b2b901e4cf6b1a3ed1f823be512",
                "wType": "FlexContainer"
            }
        },
        "backIconSpan": {
            "__events__": {},
            "__info__": {
                "kuid": "aca3d15727a946de9bdb2197c0363d73",
                "srcKUID": "g855b5a0a486419fa106f9389c81eea3",
                "wType": "FlexContainer"
            }
        },
        "btnBack": {
            "__events__": {},
            "__info__": {
                "kuid": "a433bd278b7048a99813e6bfc3841112",
                "srcKUID": "a810695db12e40ef8e6e2fdd1f5a354b",
                "wType": "Button"
            }
        },
        "frmTitle": {
            "__events__": {},
            "__info__": {
                "kuid": "g1b63e96dc1a400d8fef6db4c518e08d",
                "srcKUID": "cb64dff9384042619fefcfd5bc6abce8",
                "wType": "FlexContainer"
            }
        },
        "frmTitleID": {
            "__events__": {},
            "__info__": {
                "kuid": "f3453fc885a34382821993549d9625fd",
                "srcKUID": "e197f4b300594e72aab96e90069161e0",
                "wType": "Label"
            },
            "text": "CNIC To Bank"
        }
    },
    "enablescrolling": true,
    "id": "back",
    "info": null,
    "iscustomlayout": false,
    "isdatareferenced": false,
    "isvisible": true,
    "kuid": "j909ca63b2f34204977bb2cbe014a251",
    "layouttype": 5,
    "masterType": 0,
    "name": "kony.ui.UserWidgetInstance",
    "parent": "cToBankTransferId",
    "pf": "frmCnicToBank",
    "retaincontentalignment": false,
    "retainflexpositionproperties": false,
    "retainflowhorizontalalignment": false,
    "snapgridsize": "10",
    "snaptogrid": true,
    "sourceUserWidget": "d2625840c25b431bafafe9badccae55e",
    "wType": "UserWidgetInstance",
    "zindex": 1
}