{
    "@class": "com.kony.gen.viz.model.component.KVizUserWidget",
    "DNDConfig": null,
    "_children_": [],
    "_height_": {
        "type": "string",
        "value": "74dp"
    },
    "_left_": {
        "type": "string",
        "value": "0dp"
    },
    "_margin_": [
        0,
        0,
        0,
        0
    ],
    "_orientation_": 1,
    "_padding_": [
        0,
        0,
        0,
        0
    ],
    "_percent_": true,
    "_right_": {
        "type": "number",
        "value": "0"
    },
    "_skin_": "s51e9368f8f94bdca76cc7ffb53bdaa0",
    "_top_": {
        "type": "string",
        "value": "0dp"
    },
    "areflexpropsreferenced": false,
    "autogrowmode": 0,
    "canUpdateUI": true,
    "clipbounds": true,
    "containerweight": 0,
    "dataDiffs": {
        "Navicon": {
            "__events__": {},
            "__info__": {
                "kuid": "hcd5d8a1dfed4c8c8b259f7321fc1909",
                "srcKUID": "c1d262e9199a4fb49c67a76012bf0e4e",
                "wType": "Label"
            }
        },
        "SignOut": {
            "__events__": {},
            "__info__": {
                "kuid": "gbc210d46f464d7a8b5e8003554061f5",
                "srcKUID": "d030d435372a4fc496505683ab8d1b8d",
                "wType": "Label"
            }
        },
        "headerSection": {
            "__events__": {},
            "__info__": {
                "isRoot": true,
                "kuid": "i385fd3312ac4a75b828ee2039d84def",
                "srcKUID": "e376d336675c4931be9b1e8d3be94e1f",
                "wType": "FlexContainer"
            }
        },
        "lblHeader": {
            "__events__": {},
            "__info__": {
                "kuid": "ac9383c3a32040689654d2700250387d",
                "srcKUID": "g25eeff558394b8aa9b8c8e611e4705a",
                "wType": "Label"
            }
        },
        "logoutSpan": {
            "__events__": {},
            "__info__": {
                "kuid": "d0ab108d985f44cc887b3c4297de38e9",
                "srcKUID": "faa11e9a9d7140d086bbb991b72fa872",
                "wType": "FlexContainer"
            }
        },
        "navSpan": {
            "__events__": {},
            "__info__": {
                "kuid": "e539109398ef43deb812e863d17ce9f4",
                "srcKUID": "b1a5e87cc5a4430c8cbc7b287162eb7f",
                "wType": "FlexContainer"
            }
        },
        "pageTitleSpan": {
            "__events__": {},
            "__info__": {
                "kuid": "jc0a52ee8bba426eba477162974db79b",
                "srcKUID": "d111f8af4ef34a5f884706d3607ca18f",
                "wType": "FlexContainer"
            }
        }
    },
    "defaultunit": 3,
    "enablescrolling": true,
    "id": "headerSection",
    "info": null,
    "iscustomlayout": false,
    "isdatareferenced": false,
    "isvisible": true,
    "kuid": "i385fd3312ac4a75b828ee2039d84def",
    "layouttype": 5,
    "masterType": 0,
    "name": "kony.ui.UserWidgetInstance",
    "parent": "frmChangePassword",
    "pf": "frmChangePassword",
    "retaincontentalignment": false,
    "retainflexpositionproperties": false,
    "retainflowhorizontalalignment": false,
    "snapgridsize": "5",
    "snaptogrid": true,
    "sourceUserWidget": "e376d336675c4931be9b1e8d3be94e1f",
    "wType": "UserWidgetInstance",
    "zindex": 1
}