{
    "@class": "com.kony.gen.viz.model.component.KVizUserWidget",
    "DNDConfig": null,
    "_children_": [],
    "_height_": {
        "type": "ref",
        "value": "preferred"
    },
    "_left_": {
        "type": "string",
        "value": "0dp"
    },
    "_margin_": [
        0,
        0,
        0,
        0
    ],
    "_orientation_": 1,
    "_padding_": [
        0,
        0,
        0,
        0
    ],
    "_percent_": true,
    "_skin_": "s36cbd6ae2764117b8083d250b22ac3d",
    "_top_": {
        "type": "string",
        "value": "140dp"
    },
    "_width_": {
        "type": "string",
        "value": "100%"
    },
    "areflexpropsreferenced": false,
    "autogrowmode": 1,
    "canUpdateUI": true,
    "clipbounds": true,
    "containerweight": 0,
    "dataDiffs": {
        "commonLabelID": {
            "__events__": {},
            "__info__": {
                "kuid": "f9e37d7c7f734d7ca6d4aef5bd50eda1",
                "srcKUID": "f8588a3d34f245c0a4f94fc3d7a84596",
                "wType": "Label"
            },
            "text": "Agent Name *"
        },
        "inputContorl": {
            "__events__": {},
            "__info__": {
                "isRoot": true,
                "kuid": "ddd646fd9879416b94b4df14bc0843e4",
                "srcKUID": "g0ee906268ec4028a58972020308f78b",
                "wType": "FlexContainer"
            },
            "top": {
                "Default": {
                    "type": "string",
                    "value": "140dp"
                }
            },
            "width": {
                "Default": {
                    "type": "string",
                    "value": "100%"
                }
            }
        },
        "textBoxID": {
            "__events__": {},
            "__info__": {
                "kuid": "e2381a3c05074f5f9338ec86a84c5540",
                "srcKUID": "c422369368ff4fa78e7ac29ce940a005",
                "wType": "TextField"
            }
        }
    },
    "enablescrolling": true,
    "id": "agentNameInputContorl",
    "info": null,
    "iscustomlayout": false,
    "isdatareferenced": false,
    "isvisible": true,
    "kuid": "ddd646fd9879416b94b4df14bc0843e4",
    "layouttype": 2,
    "masterType": 0,
    "name": "kony.ui.UserWidgetInstance",
    "parent": "formContainerID",
    "pf": "frmAgentOnboardingDetail",
    "retaincontentalignment": false,
    "retainflexpositionproperties": false,
    "retainflowhorizontalalignment": false,
    "snapgridsize": "10",
    "snaptogrid": true,
    "sourceUserWidget": "g0ee906268ec4028a58972020308f78b",
    "wType": "UserWidgetInstance",
    "zindex": 1
}