{
    "@class": "com.kony.gen.viz.model.component.KVizUserWidget",
    "DNDConfig": null,
    "_children_": [],
    "_height_": {
        "type": "ref",
        "value": "preferred"
    },
    "_left_": {
        "type": "string",
        "value": "0dp"
    },
    "_margin_": [
        0,
        0,
        0,
        0
    ],
    "_orientation_": 1,
    "_padding_": [
        0,
        0,
        0,
        0
    ],
    "_percent_": true,
    "_skin_": "s36cbd6ae2764117b8083d250b22ac3d",
    "_top_": {
        "type": "string",
        "value": "70dp"
    },
    "_width_": {
        "type": "string",
        "value": "100%"
    },
    "areflexpropsreferenced": false,
    "autogrowmode": 1,
    "canUpdateUI": true,
    "clipbounds": true,
    "containerweight": 0,
    "dataDiffs": {
        "commonLabelID": {
            "__events__": {},
            "__info__": {
                "kuid": "f90b4eb29d7845f597ac9165c8f17dc9",
                "srcKUID": "f8588a3d34f245c0a4f94fc3d7a84596",
                "wType": "Label"
            },
            "text": "Title *"
        },
        "inputContorl": {
            "__events__": {},
            "__info__": {
                "isRoot": true,
                "kuid": "e987385c7f8547a4a05b193c74ed3e93",
                "srcKUID": "g0ee906268ec4028a58972020308f78b",
                "wType": "FlexContainer"
            },
            "top": {
                "Default": {
                    "type": "string",
                    "value": "70dp"
                }
            },
            "width": {
                "Default": {
                    "type": "string",
                    "value": "100%"
                }
            }
        },
        "textBoxID": {
            "__events__": {},
            "__info__": {
                "kuid": "e7bd035c4e4e4bd2909f1eb6e2ae85ae",
                "srcKUID": "c422369368ff4fa78e7ac29ce940a005",
                "wType": "TextField"
            }
        }
    },
    "enablescrolling": true,
    "id": "titleInputContorl",
    "info": null,
    "iscustomlayout": false,
    "isdatareferenced": false,
    "isvisible": true,
    "kuid": "e987385c7f8547a4a05b193c74ed3e93",
    "layouttype": 2,
    "masterType": 0,
    "name": "kony.ui.UserWidgetInstance",
    "parent": "formContainerID",
    "pf": "frmAgentOnboardingDetail",
    "retaincontentalignment": false,
    "retainflexpositionproperties": false,
    "retainflowhorizontalalignment": false,
    "snapgridsize": "10",
    "snaptogrid": true,
    "sourceUserWidget": "g0ee906268ec4028a58972020308f78b",
    "wType": "UserWidgetInstance",
    "zindex": 1
}