{
    "DNDConfig": null,
    "_height_": {
        "type": "string",
        "value": "220dp"
    },
    "_left_": {
        "type": "string",
        "value": "0dp"
    },
    "_margin_": [
        0,
        0,
        0,
        0
    ],
    "_orientation_": 6,
    "_padding_": [
        0,
        0,
        0,
        0
    ],
    "_percent_": true,
    "_skin_": "s36cbd6ae2764117b8083d250b22ac3d",
    "_top_": {
        "type": "string",
        "value": "0dp"
    },
    "_width_": {
        "type": "string",
        "value": "100%"
    },
    "allboxes": [],
    "canUpdateUI": true,
    "children": [
        "accordion"
    ],
    "clipbounds": true,
    "containerweight": 100,
    "enablescrolling": true,
    "id": "FlexContainer0a1f69a55f4a040",
    "info": null,
    "iscustomlayout": false,
    "isvisible": true,
    "kuid": "c0a5d53d883b47e8802b19ee67544a79",
    "layouttype": 2,
    "name": "kony.ui.FlexContainer",
    "parent": "quickLinkSection",
    "pf": "frmDashboard",
    "responsiveconfig": {
        "offset": {
            "landscape": 0,
            "portrait": 0
        },
        "span": {
            "landscape": 6,
            "portrait": 12
        }
    },
    "retaincontentalignment": false,
    "retainflexpositionproperties": false,
    "retainflowhorizontalalignment": false,
    "snapgridsize": 10,
    "snaptogrid": true,
    "wType": "FlexContainer",
    "widgetalignment": 1,
    "zindex": 1
}