{
    "DNDConfig": null,
    "_height_": {
        "type": "string",
        "value": "50dp"
    },
    "_left_": {
        "type": "string",
        "value": "0dp"
    },
    "_margin_": [
        0,
        0,
        0,
        0
    ],
    "_orientation_": 6,
    "_padding_": [
        0,
        0,
        0,
        0
    ],
    "_percent_": true,
    "_skin_": "s36cbd6ae2764117b8083d250b22ac3d",
    "_top_": {
        "type": "string",
        "value": "0dp"
    },
    "_width_": {
        "type": "string",
        "value": "100%"
    },
    "allboxes": [],
    "autogrowmode": 0,
    "canUpdateUI": true,
    "children": [
        "welcomeLabelID",
        "customerNameLabelID"
    ],
    "clipbounds": true,
    "containerweight": 100,
    "enablescrolling": true,
    "id": "welcomeSpan",
    "info": null,
    "iscustomlayout": false,
    "isvisible": true,
    "kuid": "jaf698fb86f04eb586f353524667f82a",
    "layouttype": 2,
    "name": "kony.ui.FlexContainer",
    "parent": "welcomeBarID",
    "pf": "frmDashboard",
    "responsiveconfig": {
        "offset": {
            "landscape": 0,
            "portrait": 0
        },
        "span": {
            "landscape": 8,
            "portrait": 6
        }
    },
    "retaincontentalignment": false,
    "retainflexpositionproperties": false,
    "retainflowhorizontalalignment": false,
    "snapgridsize": 10,
    "snaptogrid": true,
    "wType": "FlexContainer",
    "widgetalignment": 1,
    "zindex": 1
}